…
overview
--------

``` r
library(dplyr)
library(littlelisteners)
```

### eyetracking data

Here's some made-up data for a hypothetical two-image eyetracking experiment.

``` r
two_image_data
#> # A tibble: 1,640 x 7
#>    Subject TrialNo TargetImage Condition  Time GazeByTarget GazeByLocation
#>      <chr>   <int>       <chr>     <chr> <dbl>        <chr>          <chr>
#>  1     S01       1      ImageR         C -1000      tracked        tracked
#>  2     S01       1      ImageR         C  -950         <NA>           <NA>
#>  3     S01       1      ImageR         C  -900   Distractor         ImageL
#>  4     S01       1      ImageR         C  -850         <NA>           <NA>
#>  5     S01       1      ImageR         C  -800         <NA>           <NA>
#>  6     S01       1      ImageR         C  -750       Target         ImageR
#>  7     S01       1      ImageR         C  -700       Target         ImageR
#>  8     S01       1      ImageR         C  -650         <NA>           <NA>
#>  9     S01       1      ImageR         C  -600       Target         ImageR
#> 10     S01       1      ImageR         C  -550   Distractor         ImageL
#> # ... with 1,630 more rows
```
…
Or we can handle data from a hypothetical four-image experiment.

``` r
four_image_data
#> # A tibble: 1,640 x 6
#>    Subject TrialNo TargetImage Condition  Time GazeByTarget
#>      <chr>   <int>       <chr>     <chr> <dbl>        <chr>
#>  1     S01       1  UpperRight         B -1000       Target
#>  2     S01       1  UpperRight         B  -950         <NA>
#>  3     S01       1  UpperRight         B  -900       Target
#>  4     S01       1  UpperRight         B  -850       Target
#>  5     S01       1  UpperRight         B  -800      tracked
#>  6     S01       1  UpperRight         B  -750   Competitor
#>  7     S01       1  UpperRight         B  -700         <NA>
#>  8     S01       1  UpperRight         B  -650         <NA>
#>  9     S01       1  UpperRight         B  -600       Target
#> 10     S01       1  UpperRight         B  -550        FoilB
#> # ... with 1,630 more rows
…
