Load a .gazedata file for an experiment — read_gazedata • littlelisteners
…
Compute the mean x, y, distance and diameter values for the left and
  right eyes. NA values are ignored when computing the mean, so the
  pair (XLeft = NA, XRight = .5) yields XMean = .5.

    References

    Tobii Toolbox for Matlab: Product
  Description & User Guide

    Examples

gazedata_path <- example_files(1)[1]
read_gazedata(gazedata_path)
#> # A tibble: 12,573 × 17
#>    Basename TrialNo TobiiTime  Time Origin XLeft XRight XMean YLeft YRight YMean
#>    <chr>      <int>     <dbl> <int> <chr>  <dbl>  <dbl> <dbl> <dbl>  <dbl> <dbl>
#>  1 Coartic…       1   1.36e12 37312 Lower… 0.355  0.367 0.361 0.561  0.551 0.556
#>  2 Coartic…       1   1.36e12 37329 Lower… 0.352  0.372 0.362 0.559  0.562 0.561
#>  3 Coartic…       1   1.36e12 37345 Lower… 0.359  0.366 0.362 0.564  0.566 0.565
#>  4 Coartic…       1   1.36e12 37362 Lower… 0.353  0.366 0.360 0.565  0.573 0.569
#>  5 Coartic…       1   1.36e12 37378 Lower… 0.350  0.367 0.359 0.558  0.579 0.568
#>  6 Coartic…       1   1.36e12 37395 Lower… 0.352  0.363 0.358 0.559  0.574 0.567
#>  7 Coartic…       1   1.36e12 37412 Lower… 0.357  0.360 0.358 0.566  0.565 0.565
#>  8 Coartic…       1   1.36e12 37428 Lower… 0.352  0.367 0.359 0.563  0.559 0.561
#>  9 Coartic…       1   1.36e12 37445 Lower… 0.348  0.374 0.361 0.554  0.558 0.556
#> 10 Coartic…       1   1.36e12 37461 Lower… 0.351  0.364 0.357 0.569  0.565 0.567
#> # ℹ 12,563 more rows
#> # ℹ 6 more variables: ZLeft <dbl>, ZRight <dbl>, ZMean <dbl>,
#> #   DiameterLeft <dbl>, DiameterRight <dbl>, DiameterMean <dbl>
…
