Helper Functions for Hand-coded Eyetracking Data • littlelisteners
…
install.packages("devtools")
devtools::install_github("tjmahr/littlelisteners")

overview

library(dplyr)
library(littlelisteners)

eyetracking data

Here’s some made-up data for a hypothetical two-image eyetracking experiment.

two_image_data
#> # A tibble: 1,640 x 7
#>    Subject TrialNo TargetImage Condition  Time GazeByTarget GazeByLocation
#>      <chr>   <int>       <chr>     <chr> <dbl>        <chr>          <chr>
#>  1     S01       1      ImageR         C -1000       Target         ImageR
#>  2     S01       1      ImageR         C  -950       Target         ImageR
#>  3     S01       1      ImageR         C  -900       Target         ImageR
#>  4     S01       1      ImageR         C  -850       Target         ImageR
#>  5     S01       1      ImageR         C  -800       Target         ImageR
#>  6     S01       1      ImageR         C  -750       Target         ImageR
#>  7     S01       1      ImageR         C  -700       Target         ImageR
#>  8     S01       1      ImageR         C  -650   Distractor         ImageL
#>  9     S01       1      ImageR         C  -600         <NA>           <NA>
#> 10     S01       1      ImageR         C  -550       Target         ImageR
#> # ... with 1,630 more rows
…
aggregate_looks(two_image_data, location_def, Subject ~ GazeByLocation)
#> # A tibble: 4 x 12
#>   .response_def Subject ImageL ImageR Elsewhere Missing Others Primary
#>           <chr>   <chr>  <dbl>  <dbl>     <dbl>   <dbl>  <dbl>   <dbl>
#> 1        ImageR     S01    177    162        55      16    177     162
#> 2        ImageR     S02    128    128       116      38    128     128
#> 3        ImageR     S03    138    152        71      49    138     152
#> 4        ImageR     S04    110    124       102      74    110     124
#> # ... with 4 more variables: Looks <dbl>, Prop <dbl>, PropSE <dbl>,
#> #   PropNA <dbl>

Or we can handle data from a hypothetical four-image experiment.

four_image_data
#> # A tibble: 1,640 x 6
#>    Subject TrialNo TargetImage Condition  Time GazeByTarget
#>      <chr>   <int>       <chr>     <chr> <dbl>        <chr>
#>  1     S01       1  UpperRight         B -1000       Target
#>  2     S01       1  UpperRight         B  -950         <NA>
#>  3     S01       1  UpperRight         B  -900         <NA>
#>  4     S01       1  UpperRight         B  -850         <NA>
#>  5     S01       1  UpperRight         B  -800         <NA>
#>  6     S01       1  UpperRight         B  -750         <NA>
#>  7     S01       1  UpperRight         B  -700   Competitor
#>  8     S01       1  UpperRight         B  -650   Competitor
#>  9     S01       1  UpperRight         B  -600         <NA>
#> 10     S01       1  UpperRight         B  -550       Target
#> # ... with 1,630 more rows
…
