Aggregating Eyetracking Data • littlelisteners
…
Among these images is a target (here, bell), a phonological competitor (bee), a semantic competitor (drum), and an unrelated word (swing). The listener hears a prompt to view one of images: Find the bell. The operative experimental question is how does the probability of fixating on the named image change over time.

The package provides some example eyetracking data from this experiment for one participant. Each row is a sample from an eyetracker running at a rate of 60 Hz (60 frames per second). Time is in milliseconds. We have already mapped the x-y gaze coordinates onto screen locations. These gaze locations are coded in the GazeByImageAOI column as looks to the "Target", "PhonologicalFoil", "SemanticFoil", or "Unrelated" images, or as "tracked" (ambiguous/intermediate location) or NA (offscreen or missing).

library(littlelisteners)
library(dplyr, warn.conflicts = FALSE)
four_image_data
#> # A tibble: 20,910 x 25
#>    Subject BlockNo  Time GazeByAOI GazeByImageAOI TargetLocation
#>    <chr>     <int> <int> <chr>     <chr>          <chr>         
#>  1 001P          1 35238 tracked   tracked        UpperRightIma~
#>  2 001P          1 35255 tracked   tracked        UpperRightIma~
#>  3 001P          1 35272 tracked   tracked        UpperRightIma~
#>  4 001P          1 35288 tracked   tracked        UpperRightIma~
#>  5 001P          1 35306 tracked   tracked        UpperRightIma~
#>  6 001P          1 35322 tracked   tracked        UpperRightIma~
#>  7 001P          1 35338 tracked   tracked        UpperRightIma~
#>  8 001P          1 35355 tracked   tracked        UpperRightIma~
#>  9 001P          1 35372 tracked   tracked        UpperRightIma~
#> 10 001P          1 35388 tracked   tracked        UpperRightIma~
#> # ... with 20,900 more rows, and 19 more variables: PhonologicalLocation <chr>,
#> #   SemanticLocation <chr>, UnrelatedLocation <chr>, Audio <chr>,
#> #   CarrierOnset <int>, TrialNo <int>, UpperLeftImage <chr>,
#> #   UpperRightImage <chr>, LowerRightImage <chr>, LowerLeftImage <chr>,
#> #   Target <chr>, SemanticFoil <chr>, PhonologicalFoil <chr>, Unrelated <chr>,
#> #   UpperLeftImageStimulus <chr>, UpperRightImageStimulus <chr>,
#> #   LowerRightImageStimulus <chr>, LowerLeftImageStimulus <chr>,
#> #   TargetOnset <int>
…
Or looks by participant by trial. Here we just print the dataframe as is.

four_image_data %>% 
  aggregate_looks(response_def, Subject + TrialNo ~ GazeByImageAOI)
#> # A tibble: 24 x 15
#>    .response_def Subject TrialNo PhonologicalFoil SemanticFoil Target Unrelated
#>    <chr>         <chr>     <int>            <dbl>        <dbl>  <dbl>     <dbl>
#>  1 looks to tar~ 001P          1              232           80    250       105
#>  2 looks to tar~ 001P          2              181           93    242       160
#>  3 looks to tar~ 001P          3               79          101    231        66
#>  4 looks to tar~ 001P          4              188          135    123       145
#>  5 looks to tar~ 001P          5               90          170    164        79
#>  6 looks to tar~ 001P          6               70          198    172        24
#>  7 looks to tar~ 001P          7               83           47    109       195
#>  8 looks to tar~ 001P          8               60           63     77        40
#>  9 looks to tar~ 001P          9               71           50     50        50
#> 10 looks to tar~ 001P         10               57          305    150        82
#> # ... with 14 more rows, and 8 more variables: Elsewhere <dbl>, Missing <dbl>,
#> #   Others <dbl>, Primary <dbl>, Looks <dbl>, Prop <dbl>, PropSE <dbl>,
#> #   PropNA <dbl>
…
growth_curves <- four_image_data %>% 
  adjust_times(Time, TargetOnset, Subject, BlockNo, TrialNo) %>% 
  filter(-1005 <= Time, Time <= 2000) %>% 
  assign_bins(6, Time, Subject, BlockNo, TrialNo) %>% 
  # Set a time for each bin
  group_by(Subject, BlockNo, TrialNo, .bin) %>% 
  mutate(BinTime = round(min(Time))) %>% 
  aggregate_looks(all_defs, Subject + BinTime ~ GazeByImageAOI) %>% 
  rename(Time = BinTime)

We now have four growth curves, one for each image type, in a single dataframe.

growth_curves
#> # A tibble: 120 x 15
#>    .response_def Subject  Time PhonologicalFoil SemanticFoil Target Unrelated
#>    <chr>         <chr>   <dbl>            <dbl>        <dbl>  <dbl>     <dbl>
#>  1 Target        001P    -1000               54           15     52        24
#>  2 Target        001P     -900               48           38     47        33
#>  3 Target        001P     -800               46           45     44        37
#>  4 Target        001P     -700               36           34     53        41
#>  5 Target        001P     -600               38           36     58        43
#>  6 Target        001P     -500               53           30     54        35
#>  7 Target        001P     -400               57           28     38        37
#>  8 Target        001P     -300               67           35     22        32
#>  9 Target        001P     -200               56           55      7        31
#> 10 Target        001P     -100               52           58      9        34
#> # ... with 110 more rows, and 8 more variables: Elsewhere <dbl>, Missing <dbl>,
#> #   Others <dbl>, Primary <dbl>, Looks <dbl>, Prop <dbl>, PropSE <dbl>,
#> #   PropNA <dbl>
…
