Aggregate looks — aggregate_looks • littlelisteners
…
    Examples

target_def <- create_response_def(
  label = "looks to target",
  primary = "Target",
  others = c("PhonologicalFoil", "SemanticFoil", "Unrelated"),
  elsewhere = "tracked",
  missing = NA)

four_image_data %>%
  aggregate_looks(target_def, Subject + TrialNo ~ GazeByImageAOI)
#> Warning: `list_along()` is deprecated as of rlang 0.2.0.
#> This warning is displayed once per session.
#> # A tibble: 24 x 15
#>    .response_def Subject TrialNo PhonologicalFoil SemanticFoil Target Unrelated
#>    <chr>         <chr>     <int>            <dbl>        <dbl>  <dbl>     <dbl>
#>  1 looks to tar~ 001P          1              232           80    250       105
#>  2 looks to tar~ 001P          2              181           93    242       160
#>  3 looks to tar~ 001P          3               79          101    231        66
#>  4 looks to tar~ 001P          4              188          135    123       145
#>  5 looks to tar~ 001P          5               90          170    164        79
#>  6 looks to tar~ 001P          6               70          198    172        24
#>  7 looks to tar~ 001P          7               83           47    109       195
#>  8 looks to tar~ 001P          8               60           63     77        40
#>  9 looks to tar~ 001P          9               71           50     50        50
#> 10 looks to tar~ 001P         10               57          305    150        82
#> # ... with 14 more rows, and 8 more variables: Elsewhere <dbl>, Missing <dbl>,
#> #   Others <dbl>, Primary <dbl>, Looks <dbl>, Prop <dbl>, PropSE <dbl>,
#> #   PropNA <dbl>
…
# With column names
four_image_data %>%
  aggregate_looks2(target_def, GazeByImageAOI, Subject, TrialNo)
#> # A tibble: 24 x 15
#>    .response_def Subject TrialNo PhonologicalFoil SemanticFoil Target Unrelated
#>    <chr>         <chr>     <int>            <dbl>        <dbl>  <dbl>     <dbl>
#>  1 looks to tar~ 001P          1              232           80    250       105
#>  2 looks to tar~ 001P          2              181           93    242       160
#>  3 looks to tar~ 001P          3               79          101    231        66
#>  4 looks to tar~ 001P          4              188          135    123       145
#>  5 looks to tar~ 001P          5               90          170    164        79
#>  6 looks to tar~ 001P          6               70          198    172        24
#>  7 looks to tar~ 001P          7               83           47    109       195
#>  8 looks to tar~ 001P          8               60           63     77        40
#>  9 looks to tar~ 001P          9               71           50     50        50
#> 10 looks to tar~ 001P         10               57          305    150        82
#> # ... with 14 more rows, and 8 more variables: Elsewhere <dbl>, Missing <dbl>,
#> #   Others <dbl>, Primary <dbl>, Looks <dbl>, Prop <dbl>, PropSE <dbl>,
#> #   PropNA <dbl>
…
