Tobii eyetracking data from scratch • littlelisteners
…
This yaml file is useful because it prevents me from having to some
numbers.

The Eprime file format is a headache, but I made the rprime package
to help clean wrangle them. It was my first R package so the function
names are kind of clunky.

# install.packages("rprime")
data_trial_all <- rprime::read_eprime(paths_to_block1[2]) |> 
  rprime::FrameList() |> 
  rprime::filter_in("Eprime.Level", 3) |> 
  rprime::to_data_frame() |> 
  tibble::as_tibble()
data_trial_all
#> # A tibble: 24 × 34
#>    Eprime.Level Eprime.LevelName Eprime.Basename    Eprime.FrameNumber Procedure
#>           <dbl> <chr>            <chr>              <chr>              <chr>    
#>  1            3 TrialList_1      Coartic_Block2_00… 2                  TrialPro…
#>  2            3 TrialList_2      Coartic_Block2_00… 3                  TrialPro…
#>  3            3 TrialList_3      Coartic_Block2_00… 4                  TrialPro…
#>  4            3 TrialList_4      Coartic_Block2_00… 5                  TrialPro…
#>  5            3 TrialList_5      Coartic_Block2_00… 6                  TrialPro…
#>  6            3 TrialList_6      Coartic_Block2_00… 7                  TrialPro…
#>  7            3 TrialList_7      Coartic_Block2_00… 9                  TrialPro…
#>  8            3 TrialList_8      Coartic_Block2_00… 10                 TrialPro…
#>  9            3 TrialList_9      Coartic_Block2_00… 11                 TrialPro…
#> 10            3 TrialList_10     Coartic_Block2_00… 12                 TrialPro…
#> # ℹ 14 more rows
#> # ℹ 29 more variables: Running <chr>, ImageL <chr>, ImageR <chr>,
#> #   Carrier <chr>, Target <chr>, Pitch <chr>, AudioStim <chr>, Attention <chr>,
#> #   AudioDur <chr>, AttentionDur <chr>, WordGroup <chr>, StimType <chr>,
#> #   TargetWord <chr>, Cycle <chr>, Sample <chr>, Image2sec.OnsetTime <chr>,
#> #   Image2sec.StartTime <chr>, Fixation.OnsetDelay <chr>,
#> #   Fixation.OnsetTime <chr>, Fixation.StartTime <chr>, …
…
